…
## What is the average daily activity pattern?
Gruop by "interval"" variable and get the mean of the steps per "internal"

```r
by5MinInterval <-
    activityDf %>% filter(!is.na(steps)) %>% group_by(interval) %>% summarize(avgSteps = mean(steps))
by5MinInterval
```

```
## # A tibble: 288 x 2
##    interval  avgSteps
##       <int>     <dbl>
##  1        0 1.7169811
##  2        5 0.3396226
##  3       10 0.1320755
##  4       15 0.1509434
##  5       20 0.0754717
##  6       25 2.0943396
##  7       30 0.5283019
##  8       35 0.8679245
##  9       40 0.0000000
## 10       45 1.4716981
## # ... with 278 more rows
```
…
```r
by5MinInterval <-
    byDayActivities %>% group_by(dayType, interval) %>% summarize(avgSteps = mean(steps))
by5MinInterval
```

```
## # A tibble: 576 x 3
## # Groups:   dayType [?]
##    dayType interval avgSteps
##      <chr>    <int>    <dbl>
##  1 weekday        0 7.006569
##  2 weekday        5 5.384347
##  3 weekday       10 5.139902
##  4 weekday       15 5.162124
##  5 weekday       20 5.073235
##  6 weekday       25 6.295458
##  7 weekday       30 5.606569
##  8 weekday       35 6.006569
##  9 weekday       40 4.984347
## 10 weekday       45 6.584347
## # ... with 566 more rows
```
…
